221,173␊
219,172␊
221,172␊
223,172␊
221,172␊
225,174␊
224,173␊
224,173␊
230,175␊
225,173␊
230,175␊
229,174␊
227,174␊
234,176␊
231,174␊
235,177␊
237,176␊
233,175␊
239,177␊
238,176␊
240,177␊
249,181␊
243,177␊
252,179␊
252,179␊
250,179␊
262,181␊
258,179␊
266,181␊
272,182␊
268,181␊
283,183␊
284,183␊
289,183␊
326,185␊
310,183␊
350,186␊
361,185␊
356,185␊
422,188␊
420,187␊
454,189␊
516,189␊
495,187␊
560,191␊
573,190␊
586,191␊
671,195␊
650,192␊
715,196␊
735,195␊
731,195␊
809,200␊
805,198␊
848,199␊
902,199␊
889,198␊
954,203␊
971,202␊
993,204␊
1077,208␊
1056,205␊
1121,208␊
1136,208␊
1169,210␊
1225,211␊
1220,211␊
1300,216␊
1295,214␊
1359,218␊
1376,218␊
1413,221␊
1471,223␊
1471,224␊
1548,231␊
1545,229␊
1607,235␊
1620,237␊
1650,240␊
1711,246␊
1713,247␊
1789,262␊
1799,259␊
1862,279␊
1877,280␊
1906,295␊
1966,335␊
1964,335␊
2027,431␊
2031,455␊
2087,558␊
2098,601␊
2119,650␊
2173,765␊
2167,782␊
2220,902␊
2223,941␊
2267,1047␊
2275,1097␊
2296,1169␊
2327,1253␊
2335,1299␊
2381,1402␊
2373,1423␊
2426,1537␊
2412,1546␊
2454,1649␊
2446,1676␊
2481,1773␊
2477,1813␊
2504,1901␊
2506,1954␊
2539,2048␊
2538,2091␊
2564,2165␊
2574,2217␊
2587,2267␊
2609,2319␊
2610,2343␊
2646,2407␊
2634,2413␊
2676,2483␊
2661,2481␊
2696,2537␊
2688,2539␊
2718,2585␊
2717,2595␊
2742,2631␊
2741,2641␊
2769,2678␊
2763,2679␊
2776,2701␊
2779,2711␊
2778,2725␊
2787,2740␊
2775,2739␊
2795,2770␊
2774,2757␊
2803,2793␊
2781,2773␊
2802,2801␊
2785,2788␊
2802,2807␊
2792,2799␊
2803,2815␊
2794,2809␊
2805,2827␊
2790,2820␊
2792,2833␊
2782,2841␊
2771,2843␊
2772,2853␊
2751,2847␊
2765,2863␊
2736,2843␊
2756,2867␊
2722,2843␊
2737,2861␊
2710,2841␊
2719,2853␊
2698,2841␊
2707,2855␊
2691,2841␊
2699,2855␊
2679,2841␊
2679,2847␊
2667,2841␊
2653,2837␊
2651,2840␊
2623,2823␊
2635,2837␊
2598,2815␊
2615,2837␊
2573,2809␊
2585,2825␊
2547,2799␊
2547,2805␊
2515,2785␊
2512,2785␊
2482,2761␊
2482,2763␊
2448,2731␊
2434,2721␊
2411,2693␊
2384,2671␊
2376,2655␊
2334,2619␊
2344,2624␊
2286,2572␊
2298,2579␊
2240,2525␊
2242,2527␊
2192,2475␊
2187,2466␊
2141,2417␊
2129,2401␊
2085,2353␊
2076,2339␊
2028,2283␊
2006,2255␊
1973,2217␊
1935,2173␊
1925,2147␊
1874,2085␊
1891,2080␊
1826,1998␊
1843,1999␊
1776,1919␊
1783,1917␊
1726,1850␊
1726,1845␊
1677,1789␊
1670,1777␊
1622,1724␊
1616,1713␊
1569,1657␊
1546,1629␊
1515,1587␊
1472,1533␊
1464,1513␊
1402,1441␊
1422,1451␊
1346,1356␊
1371,1360␊
1296,1258␊
1305,1247␊
1244,1162␊
1243,1145␊
1193,1077␊
1194,1067␊
1144,1000␊
1140,980␊
1095,903␊
1064,853␊
1075,842␊
1005,747␊
1021,750␊
957,668␊
962,666␊
917,610␊
859,543␊
878,562␊
816,490␊
806,475␊
796,455␊
727,377␊
734,379␊
693,335␊
657,311␊
693,327␊
608,283␊
624,287␊
583,271␊
530,260␊
554,264␊
497,251␊
490,250␊
490,245␊
426,237␊
440,239␊
403,233␊
376,231␊
406,233␊
343,225␊
358,225␊
335,222␊
308,219␊
325,220␊
298,217␊
301,217␊
293,214␊
277,210␊
283,212␊
271,208␊
269,208␊
275,211␊
258,205␊
263,206␊
255,204␊
250,202␊
255,203␊
246,201␊
249,200␊
246,199␊
239,196␊
243,197␊
239,196␊
237,196␊
241,197␊
233,193␊
234,193␊
232,192␊
230,190␊
233,193␊
227,189␊
230,191␊
227,188␊
225,187␊
227,189␊
224,186␊
225,186␊
229,187␊
222,185␊
223,184␊
222,182␊
220,182␊
224,184␊
220,182␊
222,183␊
220,182␊
218,180␊
220,181␊
218,181␊
218,180␊
221,181␊
217,179␊
218,178␊
218,179␊
215,179␊
219,180␊
215,178␊
218,179␊
217,178␊
214,177␊
216,179␊
215,176␊
215,178␊
218,178␊
213,177␊
215,177␊
216,176␊
214,177␊
217,178␊
214,177␊
217,178␊
216,178␊
213,175␊
216,177␊
215,176␊
216,177␊
217,178␊
214,177␊
216,177␊
215,177␊
215,176␊
219,178␊
215,178␊
218,179␊
217,178␊
216,177␊
219,179␊
217,177␊
219,178␊
221,178␊
218,178␊
220,179␊
219,179␊
219,179␊
223,180␊
220,180␊
223,181␊
222,181␊
221,179␊
225,182␊
223,180␊
226,182␊
229,183␊
226,181␊
228,183␊
228,182␊
228,183␊
233,186␊
230,184␊
235,185␊
234,185␊
233,185␊
240,189␊
238,187␊
241,187␊
246,188␊
242,189␊
249,189␊
249,189␊
250,190␊
261,191␊
255,190␊
265,193␊
265,193␊
263,192␊
276,195␊
274,193␊
282,195␊
299,196␊
286,196␊
305,198␊
305,199␊
304,198␊
344,203␊
327,199␊
360,204␊
377,204␊
362,204␊
417,208␊
417,207␊
437,210␊
509,213␊
475,211␊
531,215␊
540,216␊
540,217␊
619,223␊
604,221␊
660,226␊
695,227␊
685,228␊
751,235␊
754,235␊
784,241␊
850,247␊
824,247␊
883,257␊
898,263␊
905,268␊
984,298␊
977,295␊
1042,337␊
1078,367␊
1084,375␊
1176,479␊
1170,478␊
1235,557␊
1253,581␊
1295,635␊
1340,701␊
1339,710␊
1417,821␊
1407,831␊
1462,917␊
1471,953␊
1503,1013␊
1544,1080␊
1535,1094␊
1606,1202␊
1579,1197␊
1643,1295␊
1619,1289␊
1675,1381␊
1658,1384␊
1698,1457␊
1696,1487␊
1739,1561␊
1736,1589␊
1774,1662␊
1775,1693␊
1794,1747␊
1811,1795␊
1815,1828␊
1855,1890␊
1846,1901␊
1913,1985␊
1894,1983␊
1960,2059␊
1955,2061␊
2017,2128␊
2024,2139␊
2080,2194␊
2099,2213␊
2155,2266␊
2178,2280␊
2234,2329␊
2256,2343␊
2292,2375␊
2325,2401␊
2345,2419␊
2388,2459␊
2394,2465␊
2454,2523␊
2445,2516␊
2500,2565␊
2497,2561␊
2541,2603␊
2541,2604␊
2576,2639␊
2577,2647␊
2608,2683␊
2608,2692␊
2634,2721␊
2640,2727␊
2658,2749␊
2675,2760␊
2686,2767␊
2718,2789␊
2715,2787␊
2759,2822␊
2744,2810␊
2779,2843␊
2765,2831␊
2788,2857␊
2780,2847␊
2800,2869␊
2793,2865␊
2812,2889␊
2803,2879␊
2818,2899␊
2811,2893␊
2814,2902␊
2816,2909␊
2806,2907␊
2814,2922␊
2791,2913␊
2811,2943␊
2777,2921␊
2792,2947␊
2762,2929␊
2772,2945␊
2750,2929␊
2754,2937␊
2738,2925␊
2743,2929␊
2725,2911␊
2727,2907␊
2710,2885␊
2704,2871␊
2696,2857␊
2676,2829␊
2683,2825␊
2653,2786␊
2672,2793␊
2630,2743␊
2642,2747␊
2603,2703␊
2606,2701␊
2571,2665␊
2569,2655␊
2540,2623␊
2544,2617␊
2512,2581␊
2509,2567␊
2486,2535␊
2471,2513␊
2457,2487␊
2427,2449␊
2429,2437␊
2384,2383␊
2402,2391␊
2348,2323␊
2358,2319␊
2311,2254␊
2312,2245␊
2270,2188␊
2264,2169␊
2228,2115␊
2232,2103␊
2192,2045␊
2186,2023␊
2157,1979␊
2138,1945␊
2128,1917␊
2093,1869␊
2102,1865␊
2052,1803␊
2076,1829␊
2010,1754␊
2019,1765␊
1962,1700␊
1959,1700␊
1907,1637␊
1897,1627␊
1849,1571␊
1842,1567␊
1785,1501␊
1767,1482␊
1725,1427␊
1688,1380␊
1668,1346␊
1611,1273␊
1617,1265␊
1548,1173␊
1574,1185␊
1496,1077␊
1510,1075␊
1441,974␊
1439,957␊
1386,882␊
1385,873␊
1344,814␊
1296,751␊
1321,776␊
1239,674␊
1241,675␊
1193,615␊
1190,610␊
1154,567␊
1101,506␊
1128,539␊
1043,445␊
1045,449␊
994,399␊
989,394␊
971,377␊
908,325␊
922,337␊
877,307␊
851,300␊
873,307␊
794,276␊
806,278␊
767,266␊
712,258␊
738,262␊
670,248␊
667,250␊
648,243␊
583,237␊
603,241␊
555,235␊
525,232␊
546,232␊
467,226␊
474,226␊
438,224␊
387,222␊
415,224␊
354,218␊
356,219␊
339,215␊
303,211␊
309,213␊
289,209␊
286,210␊
289,209␊
268,205␊
269,205␊
263,203␊
256,203␊
262,204␊
251,200␊
254,203␊
249,199␊
243,198␊
247,200␊
241,195␊
240,197␊
240,196␊
234,194␊
234,194␊
232,193␊
229,192␊
233,194␊
227,191␊
229,193␊
226,191␊
223,189␊
225,190␊
223,189␊
223,191␊
223,189␊
219,188␊
221,187␊
219,188␊
217,189␊
220,189␊
215,186␊
218,189␊
215,187␊
212,186␊
214,187␊
212,186␊
213,186␊
212,186␊
210,184␊
211,185␊
209,184␊
207,184␊
211,187␊
206,184␊
209,186␊
207,185␊
205,183␊
207,186␊
205,183␊
206,185␊
206,183␊
203,183␊
205,184␊
204,183␊
203,183␊
206,185␊
203,183␊
203,185␊
203,184␊
202,183␊
203,184␊
201,183␊
203,185␊
203,183␊
201,184␊
202,185␊
201,183␊
202,184␊
204,186␊
202,184␊
203,187␊
201,185␊
200,184␊
203,187␊
201,185␊
203,186␊
202,187␊
200,185␊
202,188␊
201,188␊
201,187␊
203,190␊
200,188␊
203,189␊
203,189␊
201,188␊
204,190␊
202,190␊
204,191␊
204,191␊
203,190␊
204,192␊
203,192␊
204,193␊
208,196␊
204,193␊
208,197␊
205,194␊
205,194␊
209,197␊
207,195␊
208,198␊
210,199␊
207,196␊
210,200␊
209,199␊
210,200␊
213,204␊
211,201␊
215,205␊
212,206␊
212,203␊
216,209␊
213,207␊
217,210␊
217,211␊
216,212␊
219,215␊
218,215␊
219,218␊
223,222␊
220,219␊
225,225␊
224,225␊
222,230␊
227,231␊
226,228␊
229,234␊
230,237␊
228,237␊
232,245␊
232,245␊
234,249␊
241,263␊
237,256␊
244,273␊
243,272␊
244,271␊
254,299␊
252,295␊
259,319␊
265,360␊
263,348␊
274,412␊
277,434␊
281,453␊
311,553␊
298,534␊
331,613␊
338,643␊
335,651␊
392,737␊
391,745␊
426,797␊
487,863␊
465,853␊
526,924␊
540,947␊
550,970␊
632,1061␊
612,1048␊
677,1131␊
685,1159␊
713,1211␊
771,1283␊
759,1293␊
838,1387␊
830,1394␊
897,1471␊
903,1492␊
928,1531␊
992,1593␊
982,1595␊
1057,1673␊
1057,1682␊
1122,1751␊
1138,1781␊
1208,1857␊
1222,1877␊
1272,1932␊
1309,1967␊
1339,2002␊
1395,2047␊
1406,2067␊
1488,2135␊
1484,2143␊
1572,2222␊
1564,2222␊
1639,2285␊
1641,2286␊
1702,2335␊
1714,2341␊
1771,2382␊
1787,2397␊
1847,2447␊
1855,2455␊
1897,2491␊
1921,2511␊
1943,2529␊
1983,2560␊
1986,2566␊
2043,2609␊
2032,2607␊
2096,2661␊
2080,2653␊
2132,2697␊
2126,2697␊
2167,2731␊
2170,2735␊
2210,2763␊
2219,2766␊
2263,2795␊
2275,2795␊
2314,2811␊
2342,2817␊
2369,2820␊
2417,2837␊
2429,2827␊
2486,2851␊
2485,2834␊
2537,2865␊
2528,2843␊
2570,2866␊
2562,2849␊
2590,2859␊
2591,2845␊
2617,2852␊
2618,2837␊
2645,2845␊
2645,2827␊
2659,2823␊
2669,2811␊
2675,2795␊
2694,2793␊
2690,2768␊
2724,2783␊
2710,2747␊
2743,2763␊
2727,2731␊
2754,2743␊
2745,2715␊
2765,2721␊
2757,2699␊
2772,2699␊
2768,2677␊
2784,2683␊
2776,2656␊
2784,2651␊
2784,2638␊
2779,2620␊
2787,2617␊
2771,2588␊
2794,2601␊
2765,2555␊
2785,2567␊
2755,2523␊
2766,2529␊
2743,2491␊
2751,2494␊
2732,2459␊
2739,2455␊
2722,2419␊
2730,2417␊
2714,2379␊
2714,2365␊
2706,2337␊
2693,2307␊
2697,2295␊
2672,2249␊
2692,2259␊
2658,2197␊
2675,2204␊
2641,2135␊
2654,2133␊
2626,2077␊
2632,2069␊
2611,2022␊
2618,2019␊
2594,1973␊
2598,1961␊
2574,1907␊
2565,1875␊
2553,1839␊
2532,1791␊
2533,1773␊
2498,1704␊
2514,1716␊
2467,1633␊
2481,1646␊
2432,1570␊
2437,1567␊
2395,1491␊
2387,1477␊
2351,1416␊
2344,1406␊
2302,1349␊
2291,1342␊
2251,1291␊
2227,1266␊
2200,1233␊
2160,1176␊
2152,1167␊
2098,1089␊
2110,1109␊
2042,1013␊
2051,1030␊
1990,946␊
1994,958␊
1947,890␊
1952,891␊
1912,819␊
1883,763␊
1895,767␊
1838,672␊
1848,677␊
1806,605␊
1813,605␊
1775,548␊
1739,492␊
1755,512␊
1685,412␊
1689,410␊
1638,345␊
1637,343␊
1595,307␊
1552,288␊
1571,297␊
1492,269␊
1488,271␊
1435,260␊
1427,263␊
1382,253␊
1324,247␊
1344,252␊
1256,239␊
1254,241␊
1201,234␊
1197,237␊
1161,231␊
1108,227␊
1137,232␊
1054,224␊
1057,226␊
1009,221␊
1004,223␊
978,219␊
924,216␊
954,219␊
891,214␊
891,216␊
874,214␊
812,210␊
827,211␊
782,209␊
757,210␊
781,210␊
698,207␊
705,207␊
668,206␊
619,205␊
647,207␊
584,203␊
585,206␊
571,203␊
503,202␊
514,203␊
467,200␊
440,202␊
461,202␊
383,199␊
393,199␊
361,197␊
326,197␊
346,199␊
308,195␊
317,197␊
304,197␊
285,194␊
291,197␊
278,194␊
275,195␊
278,194␊
263,192␊
266,194␊
261,193␊
256,192␊
262,195␊
251,191␊
256,193␊
250,192␊
244,190␊
247,191␊
242,190␊
243,192␊
244,191␊
237,189␊
239,191␊
235,189␊
233,190␊
238,192␊
231,189␊
234,191␊
230,189␊
227,189␊
230,191␊
227,189␊
228,191␊
227,189␊
224,188␊
223,190␊
222,189␊
221,189␊
225,191␊
220,189␊
223,190␊
221,190␊
217,188␊
221,190␊
218,188␊
219,191␊
219,191␊
216,189␊
218,191␊
217,191␊
215,191␊
219,193␊
215,192␊
217,193␊
215,192␊
214,192␊
216,194␊
214,192␊
215,194␊
215,194␊
213,193␊
214,195␊
213,195␊
213,195␊
216,198␊
212,195␊
216,199␊
213,196␊
212,197␊
216,200␊
213,199␊
214,200␊
215,202␊
213,199␊
214,203␊
214,202␊
213,203␊
218,207␊
214,204␊
217,208␊
215,207␊
213,206␊
218,211␊
215,210␊
218,212␊
217,212␊
216,212␊
217,215␊
217,214␊
217,217␊
221,221␊
217,218␊
221,224␊
219,222␊
218,222␊
223,228␊
221,227␊
224,232␊
224,233␊
222,231␊
225,237␊
225,237␊
225,238␊
230,249␊
226,244␊
231,254␊
230,256␊
227,254␊
234,269␊
231,267␊
234,279␊
235,292␊
233,288␊
237,315␊
236,325␊
237,337␊
245,416␊
240,401␊
247,471␊
245,496␊
244,493␊
253,569␊
250,568␊
256,604␊
260,669␊
256,650␊
264,720␊
265,737␊
268,754␊
285,844␊
275,824␊
293,895␊
295,917␊
293,919␊
323,995␊
318,1000␊
341,1047␊
378,1103␊
365,1105␊
437,1196␊
426,1196␊
489,1265␊
505,1286␊
539,1331␊
602,1382␊
593,1381␊
677,1462␊
672,1459␊
740,1523␊
751,1539␊
782,1576␊
843,1631␊
830,1627␊
906,1699␊
897,1695␊
964,1753␊
972,1758␊
999,1784␊
1062,1833␊
1048,1827␊
1128,1899␊
1116,1889␊
1186,1953␊
1186,1954␊
1251,2003␊
1266,2015␊
1329,2065␊
1345,2077␊
1402,2129␊
1419,2151␊
1456,2190␊
1495,2229␊
1510,2255␊
1571,2307␊
1571,2317␊
1659,2388␊
1641,2383␊
1715,2447␊
1707,2447␊
1767,2498␊
1770,2507␊
1822,2548␊
1831,2561␊
1887,2599␊
1900,2607␊
1951,2637␊
1975,2645␊
2014,2663␊
2053,2683␊
2071,2687␊
2125,2711␊
2128,2703␊
2199,2741␊
2192,2721␊
2251,2751␊
2247,2736␊
2297,2757␊
2301,2745␊
2344,2760␊
2355,2753␊
2399,2773␊
2406,2760␊
2439,2775␊
2448,2767␊
2469,2769␊
2493,2771␊
2502,2762␊
2539,2776␊
2535,2753␊
2587,2777␊
2576,2743␊
2619,2760␊
2616,2733␊
2652,2743␊
2655,2719␊
2686,2725␊
2694,2705␊
2728,2713␊
2732,2689␊
2756,2689␊
2763,2667␊
2776,2657␊
2790,2645␊
2790,2621␊
2818,2628␊
2810,2591␊
2843,2609␊
2825,2555␊
2852,2557␊
2839,2505␊
2859,2501␊
2849,2453␊
2863,2441␊
2855,2396␊
2871,2391␊
2859,2345␊
2866,2327␊
2859,2285␊
2858,2252␊
2858,2226␊
2846,2175␊
2858,2168␊
2836,2104␊
2862,2115␊
2832,2035␊
2850,2033␊
2827,1964␊
2838,1949␊
2820,1883␊
2826,1862␊
2811,1802␊
2823,1791␊
2800,1723␊
2802,1704␊
2789,1655␊
2776,1615␊
2772,1587␊
2749,1524␊
2753,1521␊
2714,1441␊
2726,1459␊
2680,1367␊
2684,1371␊
2642,1295␊
2640,1291␊
2608,1227␊
2604,1217␊
2574,1159␊
2574,1153␊
2540,1083␊
2531,1061␊
2506,1013␊
2484,971␊
2473,950␊
2434,878␊
2448,900␊
2399,809␊
2395,799␊
2366,731␊
2353,696␊
2340,664␊
2295,571␊
2307,577␊
2256,481␊
2255,470␊
2222,407␊
2207,372␊
2196,356␊
2150,303␊
2161,311␊
2114,277␊
2115,276␊
2081,264␊
2065,260␊
2058,256␊
2009,245␊
2021,249␊
1974,239␊
1979,239␊
1942,235␊
1921,233␊
1916,232␊
1859,226␊
1867,229␊
1816,223␊
1823,224␊
1783,220␊
1757,219␊
1758,218␊
1695,214␊
1699,216␊
1644,211␊
1648,213␊
1598,211␊
1561,209␊
1566,208␊
1495,206␊
1500,207␊
1447,203␊
1453,206␊
1410,201␊
1370,202␊
1384,201␊
1311,198␊
1317,201␊
1266,197␊
1271,200␊
1229,197␊
1187,196␊
1206,196␊
1127,193␊
1133,195␊
1081,193␊
1084,195␊
1046,193␊
996,192␊
1024,192␊
941,191␊
937,192␊
896,192␊
854,190␊
881,192␊
803,189␊
811,191␊
768,190␊
704,187␊
717,190␊
659,188␊
640,188␊
640,187␊
564,187␊
569,188␊
528,187␊
484,188␊
515,189␊
439,186␊
450,188␊
417,186␊
363,185␊
383,188␊
340,185␊
336,187␊
337,186␊
303,185␊
309,187␊
294,185␊
287,186␊
298,188␊
275,184␊
283,188␊
274,187␊
265,185␊
272,187␊
261,186␊
264,187␊
262,187␊
254,186␊
258,187␊
254,187␊
251,187␊
257,190␊
247,188␊
251,190␊
246,189␊
242,188␊
246,191␊
239,189␊
242,192␊
240,190␊
235,191␊
238,192␊
235,191␊
234,192␊
238,195␊
231,191␊
235,193␊
230,193␊
228,192␊
232,195␊
228,193␊
230,195␊
228,195␊
225,194␊
228,197␊
226,195␊
226,196␊
230,198␊
223,194␊
215,197␊
224,197␊
223,197␊
227,199␊
223,199␊
225,200␊
225,199␊
222,199␊
224,201␊
222,202␊
223,203␊
227,206␊
222,203␊
225,207␊
223,207␊
221,206␊
225,212␊
222,208␊
225,213␊
223,212␊
221,211␊
225,216␊
222,214␊
223,216␊
226,221␊
222,218␊
226,222␊
224,221␊
222,221␊
227,228␊
223,226␊
226,230␊
225,230␊
224,229␊
227,237␊
226,237␊
227,239␊
232,251␊
226,245␊
229,253␊
229,254␊
228,254␊
233,268␊
230,264␊
233,280␊
233,288␊
230,289␊
235,319␊
234,333␊
235,358␊
241,448␊
235,427␊
240,510␊
239,532␊
238,535␊
245,621␊
241,616␊
246,671␊
246,713␊
243,697␊
250,763␊
249,770␊
250,788␊
259,870␊
251,843␊
259,919␊
259,938␊
257,947␊
271,1034␊
264,1036␊
276,1110␊
273,1133␊
275,1156␊
296,1250␊
283,1232␊
304,1308␊
302,1323␊
331,1391␊
339,1417␊
342,1438␊
420,1533␊
385,1513␊
446,1583␊
447,1594␊
492,1653␊
516,1675␊
512,1691␊
605,1775␊
566,1759␊
625,1819␊
627,1839␊
671,1897␊
698,1928␊
695,1950␊
782,2033␊
753,2029␊
810,2085␊
814,2104␊
855,2149␊
886,2177␊
883,2191␊
970,2267␊
947,2264␊
1010,2317␊
1019,2338␊
1077,2390␊
1094,2407␊
1131,2443␊
1165,2469␊
1182,2489␊
1243,2526␊
1245,2533␊
1337,2589␊
1323,2586␊
1407,2641␊
1397,2638␊
1466,2684␊
1469,2688␊
1528,2723␊
1541,2731␊
1601,2761␊
1614,2766␊
1667,2795␊
1684,2795␊
1719,2813␊
1755,2827␊
1771,2829␊
1823,2849␊
1821,2843␊
1891,2872␊
1875,2853␊
1939,2880␊
1926,2864␊
1975,2881␊
1972,2868␊
2014,2877␊
2015,2867␊
2059,2877␊
2066,2863␊
2106,2869␊
2117,2855␊
2149,2851␊
2179,2846␊
2195,2829␊
2244,2834␊
2244,2811␊
2307,2825␊
2296,2793␊
2352,2803␊
2346,2771␊
2391,2775␊
2394,2749␊
2430,2747␊
2440,2722␊
2480,2724␊
2491,2698␊
2523,2695␊
2536,2669␊
2558,2657␊
2579,2641␊
2587,2613␊
2622,2607␊
2617,2562␊
2663,2569␊
2651,2513␊
2690,2518␊
2682,2469␊
2715,2468␊
2710,2423␊
2733,2415␊
2734,2377␊
2758,2375␊
2752,2336␊
2770,2331␊
2769,2300␊
2774,2283␊
2780,2266␊
2776,2235␊
2792,2233␊
2776,2184␊
2806,2197␊
2779,2127␊
2803,2130␊
2786,2065␊
2803,2059␊
2791,1995␊
2803,1975␊
2795,1913␊
2808,1894␊
2796,1828␊
2805,1804␊
2795,1747␊
2791,1710␊
2790,1675␊
2774,1617␊
2784,1609␊
2761,1537␊
2784,1554␊
2752,1454␊
2768,1455␊
2743,1368␊
2754,1360␊
2733,1291␊
2739,1279␊
2720,1222␊
2725,1217␊
2701,1153␊
2699,1134␊
2684,1081␊
2675,1042␊
2672,1015␊
2651,952␊
2664,957␊
2636,879␊
2652,891␊
2630,820␊
2643,825␊
2623,765␊
2611,716␊
2619,713␊
2586,621␊
2596,622␊
2569,544␊
2578,541␊
2552,474␊
2531,416␊
2537,421␊
2496,335␊
2501,339␊
2468,300␊
2473,303␊
2444,280␊
2419,270␊
2427,271␊
2374,256␊
2374,259␊
2333,248␊
2331,249␊
2298,242␊
2266,238␊
2275,238␊
2218,229␊
2221,232␊
2184,226␊
2183,227␊
2154,222␊
2121,219␊
2142,222␊
2086,214␊
2095,217␊
2060,213␊
2059,214␊
2034,211␊
1996,210␊
2016,211␊
1954,205␊
1955,206␊
1912,204␊
1904,204␊
1875,202␊
1830,201␊
1849,203␊
1785,199␊
1787,199␊
1745,197␊
1737,199␊
1713,197␊
1667,195␊
1690,197␊
1624,195␊
1625,196␊
1582,194␊
1567,194␊
1543,194␊
1486,194␊
1507,195␊
1435,192␊
1432,193␊
1387,192␊
1371,193␊
1349,192␊
1290,190␊
1312,193␊
1242,189␊
1243,191␊
1202,189␊
1186,189␊
1175,189␊
1117,187␊
1145,191␊
1077,187␊
1080,189␊
1039,189␊
1014,189␊
1008,187␊
942,185␊
967,191␊
901,188␊
899,189␊
885,187␊
824,187␊
839,189␊
796,189␊
767,187␊
791,190␊
707,187␊
715,188␊
678,188␊
626,189␊
655,190␊
592,187␊
593,190␊
582,188␊
519,188␊
535,191␊
495,189␊
472,190␊
503,190␊
428,189␊
444,191␊
414,190␊
368,191␊
394,194␊
345,191␊
352,194␊
342,192␊
310,191␊
322,194␊
302,193␊
298,194␊
312,195␊
285,194␊
292,195␊
282,195␊
274,195␊
285,199␊
270,196␊
276,199␊
269,198␊
262,198␊
268,201␊
260,200␊
260,202␊
265,202␊
254,202␊
257,204␊
253,204␊
251,205␊
259,209␊
250,206␊
254,210␊
250,209␊
246,209␊
250,213␊
244,211␊
247,214␊
249,215␊
242,213␊
244,218␊
242,217␊
240,219␊
246,225␊
240,221␊
244,227␊
241,227␊
238,225␊
242,232␊
238,231␊
239,235␊
241,241␊
237,237␊
239,244␊
238,246␊
236,248␊
241,260␊
235,256␊
241,268␊
237,271␊
235,271␊
240,292␊
236,293␊
238,315␊
240,361␊
235,345␊
238,404␊
238,423␊
237,433␊
243,520␊
238,507␊
242,573␊
239,607␊
237,607␊
242,686␊
239,700␊
242,744␊
245,823␊
240,801␊
243,873␊
242,891␊
242,901␊
250,989␊
244,969␊
250,1035␊
248,1061␊
245,1061␊
256,1151␊
248,1136␊
255,1197␊
253,1212␊
258,1253␊
259,1290␊
256,1289␊
269,1372␊
261,1366␊
270,1434␊
269,1459␊
277,1509␊
281,1561␊
277,1575␊
299,1661␊
289,1665␊
308,1734␊
308,1760␊
320,1805␊
345,1861␊
329,1874␊
383,1959␊
366,1973␊
417,2043␊
423,2076␊
438,2123␊
495,2177␊
471,2187␊
543,2253␊
530,2260␊
587,2309␊
591,2325␊
607,2354␊
668,2397␊
644,2399␊
714,2452␊
702,2453␊
764,2497␊
767,2502␊
778,2521␊
843,2560␊
819,2557␊
885,2603␊
876,2609␊
932,2650␊
937,2661␊
948,2677␊
1019,2713␊
992,2709␊
1068,2750␊
1052,2741␊
1106,2769␊
1112,2767␊
1171,2796␊
1169,2789␊
1214,2805␊
1230,2803␊
1254,2811␊
1291,2816␊
1296,2813␊
1357,2833␊
1339,2817␊
1421,2849␊
1391,2825␊
1455,2848␊
1441,2832␊
1495,2850␊
1491,2834␊
1541,2849␊
1545,2837␊
1597,2852␊
1597,2837␊
1637,2843␊
1648,2827␊
1667,2820␊
1697,2814␊
1699,2797␊
1753,2805␊
1741,2773␊
1814,2797␊
1793,2757␊
1857,2770␊
1850,2737␊
1903,2741␊
1907,2713␊
1955,2713␊
1969,2689␊
2025,2697␊
2034,2669␊
2075,2667␊
2096,2647␊
2123,2631␊
2159,2621␊
2168,2587␊
2222,2585␊
2219,2535␊
2284,2541␊
2275,2480␊
2332,2479␊
2330,2423␊
2376,2411␊
2383,2362␊
2422,2345␊
2434,2301␊
2480,2293␊
2483,2239␊
2513,2217␊
2526,2173␊
2541,2138␊
2567,2111␊
2570,2059␊
2608,2047␊
2600,1975␊
2643,1982␊
2630,1905␊
2666,1909␊
2657,1847␊
2687,1845␊
2683,1795␊
2709,1791␊
2713,1751␊
2741,1757␊
2743,1707␊
2764,1695␊
2773,1652␊
2785,1609␊
2802,1577␊
2803,1505␊
2834,1498␊
2824,1404␊
2858,1405␊
2841,1302␊
2867,1292␊
2855,1202␊
2875,1191␊
2866,1113␊
2879,1097␊
2870,1029␊
2884,1024␊
2873,952␊
2878,927␊
2876,897␊
2864,829␊
2886,855␊
2866,773␊
2877,776␊
2870,729␊
2875,713␊
2878,700␊
2863,632␊
2885,661␊
2862,580␊
2873,579␊
2863,525␊
2865,497␊
2866,477␊
2846,398␊
2865,415␊
2842,338␊
2849,334␊
2837,302␊
2833,292␊
2833,282␊
2810,266␊
2823,272␊
2798,256␊
2801,254␊
2785,247␊
2777,247␊
2778,243␊
2750,235␊
2762,239␊
2734,231␊
2739,231␊
2719,226␊
2708,225␊
2709,223␊
2679,219␊
2692,221␊
2664,216␊
2674,215␊
2652,213␊
2638,212␊
2643,210␊
2610,207␊
2621,209␊
2592,205␊
2598,208␊
2571,203␊
2549,202␊
2553,202␊
2512,199␊
2515,201␊
2480,198␊
2481,200␊
2448,196␊
2419,197␊
2424,197␊
2373,194␊
2374,195␊
2338,193␊
2338,195␊
2307,192␊
2279,192␊
2291,192␊
2236,190␊
2239,191␊
2201,189␊
2199,191␊
2168,188␊
2135,187␊
2155,189␊
2098,186␊
2105,188␊
2071,186␊
2072,187␊
2046,185␊
2012,184␊
2034,187␊
1974,184␊
1979,186␊
1942,184␊
1939,186␊
1913,183␊
1873,183␊
1898,185␊
1839,182␊
1845,185␊
1810,183␊
1807,185␊
1786,183␊
1744,183␊
1768,185␊
1707,183␊
1714,184␊
1678,183␊
1670,184␊
1649,183␊
1598,183␊
1619,185␊
1551,183␊
1551,185␊
1505,184␊
1487,185␊
1466,185␊
1407,184␊
1428,186␊
1358,183␊
1361,186␊
1317,185␊
1300,186␊
1286,187␊
1222,185␊
1244,187␊
1174,186␊
1178,188␊
1131,186␊
1108,189␊
1099,188␊
1034,187␊
1059,191␊
994,189␊
1002,189␊
966,190␊
928,190␊
958,195␊
888,190␊
907,195␊
877,193␊
827,193␊
858,196␊
808,194␊
808,196␊
813,196␊
755,195␊
773,197␊
742,198␊
711,198␊
746,202␊
672,199␊
693,204␊
657,202␊
605,203␊
636,207␊
584,205␊
582,207␊
589,209␊
528,207␊
546,210␊
513,210␊
481,212␊
522,216␊
449,214␊
471,219␊
443,216␊
397,217␊
428,224␊
384,221␊
384,225␊
398,226␊
346,225␊
364,231␊
340,231␊
329,233␊
356,241␊
314,237␊
333,244␊
317,247␊
299,249␊
317,263␊
296,261␊
303,272␊
301,279␊
285,277␊
294,300␊
283,306␊
283,325␊
296,399␊
276,386␊
286,463␊
278,487␊
271,495␊
285,591␊
272,592␊
279,651␊
277,703␊
269,694␊
276,763␊
271,774␊
272,804␊
286,903␊
269,882␊
279,966␊
273,987␊
268,997␊
282,1082␊
271,1078␊
281,1141␊
275,1160␊
273,1178␊
289,1272␊
273,1263␊
285,1351␊
277,1377␊
288,1456␊
283,1497␊
280,1531␊
302,1627␊
283,1623␊
296,1699␊
290,1717␊
303,1774␊
300,1799␊
295,1813␊
327,1887␊
302,1875␊
324,1936␊
315,1952␊
334,2003␊
339,2030␊
326,2040␊
378,2109␊
345,2095␊
383,2139␊
376,2148␊
397,2185␊
417,2211␊
394,2223␊
461,2294␊
423,2295␊
468,2351␊
466,2372␊
491,2417␊
525,2453␊
507,2472␊
583,2539␊
555,2547␊
608,2597␊
608,2619␊
633,2654␊
672,2683␊
654,2687␊
730,2732␊
714,2724␊
775,2753␊
786,2757␊
815,2775␊
865,2791␊
854,2785␊
932,2820␊
917,2807␊
978,2831␊
984,2831␊
1011,2843␊
1058,2855␊
1048,2849␊
1134,2879␊
1103,2861␊
1181,2891␊
1156,2873␊
1214,2893␊
1204,2880␊
1252,2895␊
1248,2883␊
1294,2899␊
1289,2887␊
1326,2895␊
1328,2885␊
1351,2886␊
1380,2879␊
1387,2867␊
1441,2871␊
1434,2845␊
1514,2865␊
1491,2831␊
1565,2852␊
1553,2823␊
1616,2835␊
1618,2811␊
1671,2818␊
1682,2801␊
1737,2807␊
1746,2789␊
1793,2791␊
1810,2772␊
1841,2763␊
1874,2753␊
1888,2732␊
1940,2729␊
1936,2689␊
2002,2699␊
1991,2649␊
2052,2657␊
2043,2609␊
2098,2612␊
2096,2569␊
2136,2553␊
2141,2508␊
2181,2493␊
2184,2447␊
2217,2424␊
2226,2378␊
2243,2345␊
2262,2311␊
2266,2265␊
2304,2251␊
2295,2189␊
2349,2196␊
2330,2121␊
2374,2120␊
2366,2055␊
2406,2047␊
2402,1988␊
2433,1973␊
2433,1914␊
2466,1897␊
2462,1832␊
2486,1805␊
2491,1747␊
2506,1709␊
2523,1673␊
2525,1621␊
2557,1612␊
2548,1541␊
2595,1561␊
2577,1464␊
2619,1462␊
2611,1369␊
2645,1349␊
2647,1261␊
2676,1231␊
2682,1151␊
2714,1133␊
2712,1047␊
2735,1020␊
2738,959␊
2746,907␊
2762,885␊
2751,791␊
2779,797␊
2766,715␊
2787,718␊
2781,663␊
2786,627␊
2803,628␊
2790,540␊
2813,548␊
2800,471␊
2819,467␊
2814,407␊
2816,361␊
2832,360␊
2816,301␊
2836,305␊
2823,278␊
2842,280␊
2830,263␊
2827,257␊
2842,253␊
2821,243␊
2836,245␊
2819,237␊
2831,239␊
2816,232␊
2806,230␊
2818,229␊
2793,222␊
2805,225␊
2786,219␊
2799,219␊
2785,216␊
2773,214␊
2792,214␊
2763,210␊
2776,211␊
2759,208␊
2770,209␊
2759,207␊
2745,204␊
2766,205␊
2736,201␊
2746,203␊
2730,199␊
2736,200␊
2723,198␊
2704,196␊
2720,198␊
2681,193␊
2683,194␊
2658,191␊
2658,192␊
2637,192␊
2607,190␊
2619,192␊
2572,188␊
2570,188␊
2538,187␊
2529,188␊
2506,187␊
2470,186␊
2481,187␊
2434,185␊
2433,186␊
2403,183␊
2394,184␊
2374,183␊
2334,182␊
2346,184␊
2293,181␊
2289,182␊
2253,180␊
2239,181␊
2216,180␊
2171,179␊
2182,182␊
2128,178␊
2127,180␊
2095,179␊
2083,179␊
2069,177␊
2027,177␊
2047,179␊
2001,177␊
2009,177␊
1981,177␊
1970,178␊
1964,177␊
1919,177␊
1938,178␊
1890,177␊
1897,178␊
1863,176␊
1846,179␊
1842,177␊
1791,176␊
1804,178␊
1750,177␊
1753,177␊
1708,176␊
1683,177␊
1675,178␊
1615,176␊
1624,179␊
1567,177␊
1573,178␊
1528,177␊
1499,178␊
1499,180␊
1435,178␊
1447,180␊
1387,179␊
1393,181␊
1340,178␊
1302,181␊
1307,181␊
1232,180␊
1243,183␊
1185,181␊
1196,184␊
1148,182␊
1108,182␊
1117,183␊
1037,183␊
1042,185␊
983,185␊
986,187␊
950,186␊
894,187␊
910,188␊
860,186␊
846,188␊
855,190␊
787,188␊
802,190␊
767,189␊
731,190␊
761,194␊
690,191␊
699,194␊
669,195␊
612,194␊
635,197␊
583,198␊
572,197␊
580,199␊
512,199␊
523,201␊
490,201␊
450,202␊
480,207␊
410,205␊
421,208␊
392,207␊
346,207␊
365,211␊
328,211␊
326,215␊
327,213␊
297,214␊
303,218␊
289,218␊
283,219␊
299,227␊
274,224␊
282,231␊
273,230␊
264,231␊
272,241␊
262,238␊
264,245␊
263,249␊
256,249␊
259,260␊
255,264␊
252,270␊
259,297␊
250,290␊
255,327␊
249,341␊
245,346␊
251,425␊
245,427␊
249,478␊
247,538␊
242,526␊
246,603␊
241,628␊
242,659␊
245,757␊
237,741␊
244,823␊
239,843␊
235,852␊
242,946␊
236,954␊
239,1017␊
238,1074␊
235,1077␊
239,1169␊
234,1181␊
237,1271␊
236,1304␊
236,1353␊
236,1429␊
233,1434␊
238,1523␊
234,1541␊
238,1627␊
235,1660␊
235,1709␊
237,1789␊
233,1799␊
239,1875␊
234,1893␊
239,1962␊
237,1991␊
236,2027␊
240,2096␊
236,2097␊
241,2159␊
237,2174␊
243,2235␊
239,2262␊
239,2289␊
246,2349␊
240,2343␊
247,2389␊
242,2397␊
249,2438␊
247,2450␊
246,2460␊
256,2515␊
248,2503␊
255,2547␊
252,2558␊
260,2597␊
259,2613␊
258,2620␊
273,2669␊
262,2659␊
272,2693␊
269,2705␊
280,2735␊
281,2750␊
279,2755␊
306,2799␊
290,2785␊
310,2813␊
307,2815␊
326,2837␊
335,2843␊
323,2839␊
378,2873␊
349,2855␊
394,2874␊
395,2869␊
424,2881␊
459,2883␊
443,2871␊
520,2897␊
491,2877␊
544,2890␊
545,2885␊
568,2893␊
608,2897␊
591,2887␊
671,2915␊
649,2901␊
710,2919␊
717,2917␊
746,2924␊
788,2927␊
771,2915␊
847,2937␊
827,2921␊
885,2932␊
895,2917␊
925,2915␊
979,2913␊
973,2889␊
1053,2901␊
1043,2875␊
1106,2877␊
1117,2851␊
1177,2853␊
1184,2827␊
1237,2823␊
1252,2795␊
1282,2774␊
1323,2755␊
1330,2725␊
1394,2719␊
1384,2681␊
1466,2695␊
1441,2645␊
1513,2655␊
1496,2609␊
1552,2606␊
1548,2565␊
1595,2553␊
1597,2513␊
1645,2501␊
1644,2457␊
1681,2441␊
1692,2409␊
1714,2388␊
1744,2362␊
1751,2320␊
1807,2314␊
1801,2255␊
1877,2266␊
1861,2196␊
1927,2201␊
1921,2133␊
1976,2120␊
1974,2052␊
2013,2029␊
2017,1973␊
2061,1955␊
2059,1887␊
2091,1859␊
2102,1805␊
2121,1761␊
2154,1727␊
2167,1669␊
2224,1653␊
2227,1571␊
2298,1579␊
2289,1484␊
2345,1483␊
2341,1395␊
2383,1373␊
2383,1291␊
2415,1273␊
2417,1209␊
2450,1203␊
2446,1124␊
2470,1087␊
2478,1015␊
2492,959␊
2514,925␊
2512,847␊
2555,860␊
2542,763␊
2571,751␊
2570,689␊
2587,662␊
2597,633␊
2587,556␊
2621,570␊
2603,473␊
2624,465␊
2622,403␊
2636,373␊
2647,352␊
2638,305␊
2672,318␊
2658,283␊
2682,280␊
2683,265␊
2695,259␊
2711,252␊
2704,245␊
2735,248␊
2723,237␊
2743,235␊
2739,232␊
2742,230␊
2754,227␊
2736,222␊
2758,224␊
2740,217␊
2755,217␊
2743,213␊
2741,214␊
2746,210␊
2722,208␊
2736,209␊
2710,205␊
2720,205␊
2701,203␊
2693,201␊
2700,201␊
2672,197␊
2687,200␊
2664,197␊
2679,197␊
2659,194␊
2650,194␊
2661,194␊
2631,190␊
2644,193␊
2623,187␊
2637,190␊
2618,186␊
2606,187␊
2619,186␊
2585,183␊
2595,186␊
2568,183␊
2576,184␊
2552,182␊
2530,181␊
2539,182␊
2493,179␊
2494,180␊
2459,178␊
2456,180␊
2425,178␊
2393,176␊
2402,177␊
2349,175␊
2351,176␊
2318,174␊
2320,175␊
2296,175␊
2270,174␊
2290,175␊
2239,173␊
2245,174␊
2213,173␊
2213,173␊
2189,171␊
2154,172␊
2173,173␊
2117,171␊
2117,171␊
2082,170␊
2075,171␊
2046,171␊
1998,170␊
2008,171␊
1938,169␊
1929,172␊
1885,170␊
1870,171␊
1842,172␊
1792,169␊
1811,171␊
1748,169␊
1749,171␊
1710,170␊
1696,171␊
1672,170␊
1616,169␊
1631,171␊
1561,169␊
1556,172␊
1513,170␊
1494,171␊
1473,170␊
1414,170␊
1433,173␊
1365,170␊
1365,171␊
1322,171␊
1302,172␊
1291,172␊
1233,171␊
1257,173␊
1194,171␊
1200,172␊
1162,173␊
1145,173␊
1145,173␊
1082,172␊
1103,175␊
1038,173␊
1040,173␊
999,174␊
971,174␊
989,176␊
914,174␊
923,176␊
886,176␊
836,177␊
864,178␊
793,177␊
795,178␊
772,177␊
711,177␊
725,181␊
679,179␊
655,180␊
676,180␊
600,179␊
612,181␊
574,181␊
524,182␊
552,185␊
484,183␊
484,186␊
469,185␊
407,185␊
424,188␊
383,187␊
367,188␊
389,190␊
330,188␊
341,191␊
319,191␊
301,191␊
317,195␊
289,193␊
296,196␊
284,195␊
272,197␊
279,199␊
267,198␊
269,201␊
270,203␊
259,202␊
261,203␊
257,205␊
252,205␊
260,210␊
249,208␊
254,215␊
248,215␊
244,216␊
247,223␊
242,223␊
243,229␊
243,233␊
238,233␊
239,242␊
238,246␊
235,249␊
240,265␊
233,260␊
236,279␊
234,288␊
230,293␊
233,340␊
229,358␊
231,408␊
231,499␊
228,494␊
230,583␊
227,619␊
225,647␊
230,751␊
225,751␊
229,834␊
226,879␊
223,902␊
228,1003␊
224,1035␊
226,1125␊
224,1189␊
222,1227␊
227,1345␊
223,1353␊
223,1442␊
221,1483␊
224,1560␊
222,1621␊
219,1657␊
225,1771␊
220,1788␊
223,1863␊
222,1899␊
223,1956␊
222,1997␊
221,2009␊
226,2084␊
222,2086␊
223,2144␊
222,2167␊
224,2209␊
223,2244␊
221,2246␊
226,2305␊
223,2296␊
225,2335␊
225,2342␊
226,2365␊
227,2393␊
223,2391␊
230,2441␊
226,2439␊
228,2482␊
228,2497␊
230,2530␊
230,2565␊
228,2567␊
235,2619␊
231,2621␊
234,2665␊
234,2679␊
235,2706␊
238,2738␊
235,2739␊
241,2774␊
237,2767␊
242,2793␊
241,2791␊
243,2799␊
245,2819␊
243,2807␊
252,2837␊
247,2829␊
256,2859␊
251,2855␊
253,2859␊
260,2877␊
256,2861␊
269,2879␊
265,2863␊
279,2875␊
276,2861␊
279,2851␊
298,2863␊
286,2835␊
310,2847␊
303,2822␊
331,2831␊
333,2815␊
339,2801␊
409,2815␊
383,2783␊
448,2790␊
453,2764␊
509,2763␊
535,2736␊
540,2709␊
631,2715␊
600,2668␊
665,2667␊
665,2632␊
712,2632␊
731,2609␊
727,2586␊
810,2602␊
780,2558␊
843,2563␊
845,2537␊
890,2533␊
914,2513␊
910,2483␊
993,2500␊
968,2451␊
1031,2454␊
1038,2423␊
1095,2421␊
1105,2381␊
1144,2365␊
1170,2333␊
1187,2301␊
1240,2275␊
1233,2217␊
1313,2209␊
1296,2135␊
1377,2133␊
1362,2054␊
1435,2051␊
1431,1982␊
1487,1969␊
1493,1914␊
1545,1900␊
1552,1847␊
1607,1837␊
1622,1785␊
1657,1759␊
1686,1723␊
1703,1687␊
1749,1675␊
1747,1621␊
1817,1643␊
1802,1576␊
1869,1604␊
1861,1537␊
1923,1551␊
1926,1489␊
1984,1483␊
1993,1412␊
2039,1385␊
2050,1311␊
2095,1288␊
2102,1213␊
2128,1173␊
2151,1126␊
2164,1067␊
2204,1052␊
2208,980␊
2266,1005␊
2257,925␊
2311,948␊
2308,882␊
2347,891␊
2354,845␊
2373,809␊
2408,792␊
2406,688␊
2455,687␊
2457,596␊
2498,580␊
2507,504␊
2523,442␊
2560,429␊
2550,334␊
2587,330␊
2583,288␊
2615,288␊
2614,265␊
2621,259␊
2648,256␊
2630,243␊
2655,242␊
2642,231␊
2664,233␊
2655,226␊
2651,223␊
2677,221␊
2651,216␊
2672,219␊
2658,212␊
2675,213␊
2667,209␊
2661,207␊
2692,207␊
2663,203␊
2680,204␊
2667,201␊
2681,202␊
2674,199␊
2666,198␊
2698,201␊
2667,194␊
2686,195␊
2676,192␊
2691,193␊
2688,191␊
2678,190␊
2704,192␊
2674,188␊
2686,189␊
2670,186␊
2675,187␊
2668,186␊
2650,183␊
2675,185␊
2643,181␊
2652,182␊
2635,179␊
2638,180␊
2628,178␊
2603,177␊
2623,178␊
2583,177␊
2584,176␊
2561,175␊
2555,177␊
2542,175␊
2512,174␊
2530,176␊
2491,172␊
2497,174␊
2476,172␊
2473,173␊
2467,173␊
2438,171␊
2461,173␊
2423,170␊
2430,172␊
2408,171␊
2401,171␊
2395,170␊
2362,169␊
2379,171␊
2338,169␊
2339,171␊
2311,169␊
2293,169␊
2283,169␊
2235,168␊
2244,171␊
2193,168␊
2190,169␊
2154,169␊
2130,169␊
2125,168␊
2073,167␊
2082,169␊
2030,167␊
2029,168␊
1989,167␊
1965,168␊
1963,167␊
1910,167␊
1923,169␊
1876,167␊
1885,167␊
1847,168␊
1823,169␊
1831,169␊
1774,169␊
1786,169␊
1737,168␊
1747,170␊
1700,168␊
1669,169␊
1680,171␊
1616,169␊
1627,170␊
1579,170␊
1585,171␊
1544,169␊
1508,169␊
1524,171␊
1450,169␊
1456,172␊
1403,170␊
1406,172␊
1364,171␊
1320,172␊
1343,173␊
1265,172␊
1272,174␊
1222,173␊
1223,175␊
1186,175␊
1138,176␊
1168,177␊
1087,176␊
1096,178␊
1048,177␊
1047,178␊
1013,177␊
953,178␊
979,181␊
896,178␊
907,180␊
863,178␊
808,180␊
831,182␊
770,181␊
763,184␊
756,183␊
693,183␊
707,184␊
665,185␊
629,186␊
657,189␊
570,187␊
577,188␊
537,190␊
480,189␊
505,193␊
446,191␊
439,193␊
435,195␊
372,192␊
383,197␊
351,197␊
333,199␊
358,204␊
310,200␊
322,203␊
305,204␊
289,204␊
303,208␊
283,207␊
289,211␊
283,212␊
270,214␊
275,217␊
266,219␊
264,222␊
271,229␊
255,226␊
258,232␊
253,233␊
247,235␊
255,245␊
246,244␊
248,256␊
246,258␊
241,262␊
244,281␊
239,284␊
239,300␊
243,354␊
235,336␊
237,404␊
234,430␊
232,442␊
237,541␊
231,541␊
233,607␊
231,658␊
228,659␊
231,737␊
228,759␊
230,797␊
233,895␊
227,873␊
227,955␊
227,985␊
225,1008␊
229,1109␊
225,1127␊
226,1223␊
225,1269␊
226,1342␊
226,1434␊
222,1470␊
226,1581␊
222,1613␊
224,1709␊
222,1756␊
223,1817␊
223,1896␊
220,1921␊
224,2004␊
221,2022␊
225,2093␊
223,2114␊
223,2149␊
224,2205␊
221,2215␊
226,2286␊
222,2311␊
227,2387␊
223,2417␊
224,2457␊
227,2519␊
223,2533␊
228,2591␊
225,2608␊
229,2663␊
226,2683␊
227,2706␊
229,2753␊
227,2753␊
230,2795␊
227,2801␊
232,2836␊
230,2839␊
230,2845␊
235,2875␊
231,2860␊
236,2879␊
233,2873␊
239,2892␊
237,2890␊
236,2888␊
245,2915␊
238,2897␊
244,2915␊
242,2909␊
248,2927␊
247,2931␊
247,2930␊
258,2959␊
250,2945␊
257,2965␊
256,2963␊
263,2977␊
263,2975␊
262,2965␊
279,2989␊
270,2965␊
283,2973␊
285,2961␊
300,2961␊
308,2949␊
304,2925␊
352,2935␊
332,2903␊
374,2903␊
377,2881␊
409,2881␊
446,2865␊
431,2843␊
514,2853␊
491,2822␊
549,2825␊
558,2811␊
591,2811␊
632,2805␊
613,2781␊
690,2801␊
665,2771␊
718,2780␊
723,2765␊
755,2765␊
801,2760␊
790,2735␊
869,2751␊
855,2719␊
913,2720␊
923,2700␊
954,2692␊
1002,2680␊
994,2647␊
1084,2654␊
1067,2606␊
1138,2601␊
1144,2557␊
1206,2545␊
1218,2501␊
1283,2491␊
1291,2440␊
1340,2417␊
1371,2377␊
1400,2341␊
1448,2313␊
1457,2261␊
1526,2255␊
1515,2191␊
1599,2207␊
1573,2133␊
1637,2140␊
1627,2085␊
1679,2083␊
1680,2041␊
1727,2039␊
1734,2000␊
1784,1999␊
1782,1938␊
1815,1907␊
1830,1857␊
1845,1807␊
1881,1773␊
1882,1705␊
1942,1694␊
1939,1607␊
2014,1610␊
2007,1505␊
2072,1483␊
2074,1380␊
2128,1346␊
2137,1252␊
2182,1214␊
2192,1129␊
2236,1095␊
2240,1005␊
2271,959␊
2288,891␊
2298,821␊
2354,833␊
2338,724␊
2379,720␊
2383,649␊
2419,643␊
2428,593␊
2434,531␊
2484,560␊
2467,450␊
2502,439␊
2504,372␊
2536,357␊
2543,315␊
2546,284␊
2593,292␊
2577,261␊
2605,260␊
2608,247␊
2633,247␊
2639,239␊
2638,233␊
2677,234␊
2659,225␊
2683,223␊
2681,218␊
2697,218␊
2702,215␊
2695,210␊
2728,212␊
2708,207␊
2724,207␊
2719,203␊
2730,204␊
2731,201␊
2720,198␊
2749,200␊
2727,195␊
2739,196␊
2731,193␊
2739,192␊
2741,192␊
2725,189␊
2749,191␊
2727,188␊
2736,188␊
2726,186␊
2730,187␊
2731,185␊
2713,183␊
2734,186␊
2711,181␊
2722,182␊
2708,181␊
2707,181␊
2711,181␊
2688,178␊
2705,180␊
2679,177␊
2687,178␊
2671,177␊
2667,177␊
2673,177␊
2645,174␊
2661,176␊
2634,175␊
2644,174␊
2625,174␊
2618,173␊
2627,173␊
2594,172␊
2607,174␊
2579,171␊
2588,174␊
2564,171␊
2551,171␊
2556,171␊
2519,170␊
2527,171␊
2495,170␊
2499,171␊
2470,169␊
2449,169␊
2456,169␊
2409,168␊
2413,169␊
2375,168␊
2373,170␊
2340,169␊
2310,168␊
2318,169␊
2261,167␊
2261,170␊
2222,169␊
2220,170␊
2189,168␊
2158,168␊
2174,169␊
2115,168␊
2117,169␊
2076,168␊
2072,169␊
2040,167␊
2002,168␊
2021,169␊
1957,168␊
1959,168␊
1919,168␊
1917,169␊
1891,169␊
1851,168␊
1870,171␊
1800,169␊
1797,170␊
1750,170␊
1739,171␊
1708,170␊
1658,170␊
1679,171␊
1608,170␊
1607,171␊
1561,171␊
1543,172␊
1514,171␊
1453,171␊
1473,174␊
1396,171␊
1395,174␊
1347,173␊
1330,175␊
1311,173␊
1251,174␊
1273,177␊
1203,175␊
1203,176␊
1158,177␊
1140,178␊
1126,179␊
1061,178␊
1086,181␊
1017,179␊
1020,181␊
976,182␊
953,183␊
959,184␊
886,183␊
893,185␊
852,186␊
811,186␊
839,189␊
765,186␊
773,191␊
743,191␊
683,191␊
703,194␊
651,195␊
637,196␊
643,197␊
570,197␊
577,200␊
537,201␊
495,203␊
522,206␊
450,205␊
461,210␊
435,211␊
380,210␊
397,215␊
353,213␊
347,216␊
351,216␊
308,215␊
315,219␊
298,221␊
287,223␊
300,231␊
276,225␊
284,236␊
273,236␊
264,238␊
272,250␊
261,249␊
263,260␊
260,268␊
252,265␊
256,282␊
251,287␊
249,299␊
255,352␊
245,345␊
249,418␊
244,454␊
240,461␊
245,551␊
239,557␊
241,607␊
239,672␊
235,662␊
237,735␊
234,757␊
234,783␊
238,871␊
231,853␊
234,929␊
231,945␊
228,947␊
232,1026␊
228,1024␊
231,1087␊
228,1108␊
226,1117␊
231,1212␊
224,1189␊
227,1261␊
224,1287␊
227,1359␊
225,1404␊
222,1434␊
228,1541␊
222,1545␊
224,1625␊
222,1663␊
224,1739␊
222,1791␊
220,1823␊
225,1925␊
219,1941␊
222,2017␊
221,2057␊
223,2126␊
221,2179␊
220,2213␊
225,2303␊
220,2319␊
222,2383␊
221,2417␊
222,2467␊
222,2509␊
220,2529␊
226,2593␊
221,2597␊
223,2636␊
222,2649␊
223,2673␊
223,2695␊
221,2695␊
227,2733␊
222,2725␊
225,2747␊
224,2749␊
226,2765␊
226,2775␊
225,2767␊
230,2797␊
227,2783␊
229,2804␊
228,2804␊
230,2815␊
231,2831␊
229,2823␊
235,2855␊
232,2844␊
236,2867␊
235,2869␊
238,2881␊
240,2901␊
237,2895␊
245,2927␊
242,2919␊
247,2941␊
246,2941␊
248,2945␊
253,2963␊
250,2943␊
259,2961␊
256,2943␊
266,2951␊
262,2933␊
264,2923␊
275,2929␊
267,2899␊
283,2905␊
276,2883␊
293,2891␊
289,2873␊
292,2864␊
321,2876␊
305,2846␊
337,2855␊
334,2831␊
377,2835␊
388,2815␊
391,2797␊
475,2807␊
439,2766␊
502,2769␊
500,2741␊
551,2743␊
573,2722␊
575,2702␊
666,2717␊
636,2670␊
701,2667␊
706,2633␊
758,2627␊
784,2601␊
784,2569␊
874,2581␊
844,2529␊
902,2527␊
907,2493␊
956,2487␊
982,2457␊
982,2417␊
1068,2423␊
1046,2361␊
1112,2351␊
1115,2298␊
1172,2281␊
1185,2238␊
1253,2227␊
1259,2165␊
1313,2135␊
1339,2078␊
1373,2031␊
1422,1993␊
1431,1929␊
1499,1915␊
1490,1841␊
1573,1846␊
1556,1759␊
1629,1756␊
1619,1671␊
1680,1649␊
1685,1569␊
1738,1538␊
1750,1462␊
1807,1437␊
1813,1351␊
1856,1307␊
1877,1222␊
1909,1143␊
1953,1077␊
1972,975␊
2038,944␊
2039,832␊
2099,819␊
2104,724␊
2159,716␊
2170,642␊
2192,581␊
2239,574␊
2234,468␊
2281,461␊
2281,380␊
2323,375␊
2326,323␊
2337,297␊
2378,295␊
2364,268␊
2401,269␊
2398,254␊
2429,253␊
2431,243␊
2435,238␊
2474,235␊
2457,228␊
2490,228␊
2485,222␊
2515,223␊
2517,217␊
2518,217␊
2560,216␊
2540,210␊
2571,211␊
2571,207␊
2602,210␊
2615,205␊
2618,203␊
2662,204␊
2650,199␊
2678,200␊
2679,197␊
2701,198␊
2708,196␊
2704,194␊
2736,196␊
2715,191␊
2733,191␊
2726,189␊
2736,191␊
2733,189␊
2719,187␊
2744,188␊
2719,186␊
2732,185␊
2722,184␊
2731,185␊
2732,181␊
2715,181␊
2741,182␊
2717,179␊
2732,180␊
2723,179␊
2729,179␊
2732,179␊
2715,177␊
2740,179␊
2720,177␊
2735,178␊
2726,175␊
2729,175␊
2731,175␊
2711,173␊
2730,176␊
2704,173␊
2712,174␊
2696,171␊
2691,173␊
2689,173␊
2661,171␊
2674,173␊
2643,171␊
2648,172␊
2625,171␊
2615,171␊
2612,171␊
2579,170␊
2590,171␊
2555,169␊
2560,170␊
2534,169␊
2518,170␊
2517,169␊
2478,168␊
2485,169␊
2448,169␊
2455,168␊
2427,168␊
2405,168␊
2407,169␊
2364,168␊
2371,170␊
2336,168␊
2342,169␊
2308,169␊
2283,170␊
2288,169␊
2238,168␊
2242,169␊
2203,167␊
2208,170␊
2172,168␊
2142,169␊
2149,170␊
2089,168␊
2089,170␊
2043,168␊
2045,171␊
2009,168␊
1975,169␊
1990,171␊
1930,170␊
1934,172␊
1895,171␊
1898,172␊
1866,171␊
1827,171␊
1843,174␊
1771,172␊
1770,173␊
1721,173␊
1717,174␊
1681,173␊
1635,173␊
1657,175␊
1586,171␊
1587,175␊
1544,173␊
1535,177␊
1501,176␊
1448,176␊
1469,179␊
1393,177␊
1394,178␊
1348,178␊
1341,180␊
1316,180␊
1264,179␊
1293,184␊
1222,181␊
1226,183␊
1184,182␊
1174,184␊
1154,184␊
1096,183␊
1125,187␊
1053,185␊
1059,187␊
1015,187␊
1002,189␊
983,189␊
917,189␊
934,192␊
873,191␊
858,192␊
852,194␊
780,194␊
789,197␊
747,195␊
707,197␊
732,201␊
647,199␊
655,202␊
611,202␊
551,202␊
572,207␊
512,204␊
501,208␊
496,209␊
427,210␊
440,214␊
403,215␊
372,217␊
400,223␊
339,220␊
355,227␊
329,227␊
303,228␊
319,237␊
295,235␊
300,242␊
295,246␊
279,247␊
285,258␊
277,261␊
273,271␊
282,300␊
264,292␊
271,337␊
262,352␊
255,360␊
263,454␊
252,453␊
255,509␊
251,562␊
244,556␊
248,626␊
243,641␊
243,677␊
247,779␊
238,769␊
240,857␊
237,890␊
233,909␊
238,1006␊
232,1006␊
235,1084␊
231,1109␊
230,1129␊
232,1219␊
227,1202␊
230,1272␊
226,1289␊
228,1371␊
226,1423␊
225,1471␊
228,1593␊
223,1612␊
226,1713␊
223,1760␊
224,1846␊
223,1900␊
221,1939␊
225,2033␊
220,2043␊
221,2111␊
219,2132␊
222,2181␊
221,2209␊
219,2219␊
223,2281␊
218,2273␊
221,2319␊
219,2327␊
221,2362␊
220,2381␊
218,2383␊
222,2439␊
218,2430␊
220,2469␊
219,2481␊
220,2519␊
219,2547␊
218,2557␊
221,2613␊
219,2611␊
221,2650␊
219,2660␊
221,2681␊
221,2697␊
219,2687␊
223,2719␊
220,2700␊
222,2719␊
221,2713␊
223,2721␊
223,2733␊
228,2724␊
226,2761␊
223,2759␊
225,2791␊
224,2805␊
226,2831␊
227,2861␊
225,2865␊
231,2901␊
227,2898␊
230,2921␊
230,2923␊
231,2929␊
233,2940␊
230,2924␊
237,2943␊
234,2927␊
238,2939␊
235,2928␊
238,2925␊
239,2933␊
238,2913␊
246,2927␊
242,2907␊
250,2919␊
246,2899␊
249,2886␊
253,2892␊
249,2864␊
258,2875␊
254,2847␊
266,2855␊
262,2829␊
265,2817␊
276,2819␊
269,2784␊
287,2787␊
283,2756␊
304,2759␊
302,2731␊
306,2711␊
348,2719␊
325,2679␊
372,2685␊
368,2654␊
418,2657␊
434,2629␊
436,2606␊
524,2617␊
492,2571␊
557,2572␊
558,2539␊
610,2537␊
629,2507␊
629,2473␊
718,2481␊
686,2423␊
748,2410␊
752,2361␊
802,2344␊
824,2293␊
825,2239␊
912,2229␊
887,2139␊
949,2105␊
955,2030␊
1003,1987␊
1031,1919␊
1040,1845␊
1112,1813␊
1104,1732␊
1200,1741␊
1179,1649␊
1259,1647␊
1251,1561␊
1321,1549␊
1326,1471␊
1386,1447␊
1399,1375␊
1463,1362␊
1467,1287␊
1514,1265␊
1531,1209␊
1557,1160␊
1591,1122␊
1595,1056␊
1649,1044␊
1637,957␊
1708,976␊
1683,879␊
1729,875␊
1730,813␊
1771,805␊
1783,759␊
1783,692␊
1849,716␊
1826,607␊
1868,593␊
1872,521␊
1912,494␊
1933,447␊
1940,372␊
2012,393␊
2004,315␊
2056,313␊
2072,287␊
2116,287␊
2143,272␊
2153,259␊
2222,265␊
2221,247␊
2272,248␊
2291,239␊
2331,240␊
2362,235␊
2369,229␊
2426,232␊
2420,222␊
2458,221␊
2469,217␊
2495,218␊
2517,215␊
2516,210␊
2561,212␊
2552,207␊
2581,207␊
2586,205␊
2603,206␊
2623,202␊
2614,200␊
2652,202␊
2641,197␊
2664,197␊
2666,195␊
2677,195␊
2694,193␊
2682,192␊
2710,194␊
2697,190␊
2717,189␊
2713,188␊
2720,188␊
2735,188␊
2722,185␊
2747,187␊
2736,183␊
2757,183␊
2751,182␊
2756,182␊
2773,181␊
2755,179␊
2777,180␊
2764,178␊
2782,177␊
2772,176␊
2771,176␊
2788,175␊
2768,174␊
2785,175␊
2771,172␊
2787,174␊
2774,173␊
2766,173␊
2781,172␊
2753,171␊
2764,172␊
2744,170␊
2752,172␊
2733,172␊
2717,171␊
2729,172␊
2692,170␊
2699,172␊
2675,170␊
2679,171␊
2661,169␊
2643,169␊
2661,170␊
2623,168␊
2631,169␊
2610,169␊
2614,170␊
2597,169␊
2578,169␊
2599,170␊
2558,168␊
2564,169␊
2540,169␊
2542,170␊
2523,169␊
2496,169␊
2515,171␊
2467,169␊
2467,170␊
2438,168␊
2432,170␊
2412,169␊
2380,168␊
2398,171␊
2347,169␊
2345,170␊
2310,169␊
2298,171␊
2273,169␊
2227,171␊
2241,172␊
2177,171␊
2169,173␊
2127,172␊
2110,173␊
2083,172␊
2031,173␊
2043,175␊
1978,173␊
1972,175␊
1930,173␊
1913,175␊
1893,174␊
1842,174␊
1863,177␊
1803,175␊
1804,177␊
1768,175␊
1753,177␊
1746,177␊
1696,176␊
1721,179␊
1666,178␊
1672,178␊
1639,178␊
1624,180␊
1624,180␊
1574,180␊
1602,182␊
1550,181␊
1563,183␊
1531,183␊
1515,184␊
1524,185␊
1471,183␊
1498,186␊
1441,185␊
1448,186␊
1405,186␊
1371,188␊
1370,188␊
1302,188␊
1315,191␊
1255,190␊
1262,193␊
1215,193␊
1179,194␊
1191,195␊
1118,195␊
1135,198␊
1078,197␊
1088,201␊
1038,201␊
997,202␊
1013,204␊
936,203␊
943,208␊
899,206␊
869,209␊
895,213␊
813,210␊
824,213␊
789,213␊
736,212␊
764,217␊
698,214␊
689,218␊
669,219␊
595,217␊
602,223␊
551,223␊
514,226␊
537,231␊
452,227␊
461,233␊
424,235␊
371,236␊
397,245␊
343,243␊
345,255␊
333,257␊
301,257␊
307,274␊
290,275␊
283,290␊
292,331␊
269,320␊
272,391␊
263,435␊
258,472␊
263,595␊
251,621␊
255,714␊
250,788␊
244,814␊
247,919␊
242,963␊
241,1030␊
245,1141␊
235,1152␊
238,1255␊
234,1293␊
236,1383␊
232,1429␊
230,1468␊
233,1576␊
226,1577␊
228,1663␊
226,1699␊
227,1779␊
225,1829␊
223,1868␊
227,1973␊
221,1987␊
223,2065␊
219,2103␊
222,2171␊
221,2211␊
218,2237␊
222,2316␊
216,2314␊
218,2361␊
216,2376␊
218,2415␊
216,2431␊
214,2438␊
217,2492␊
212,2477␊
214,2507␊
212,2509␊
215,2533␊
213,2542␊
211,2535␊
214,2576␊
210,2561␊
212,2585␊
211,2587␊
212,2609␊
211,2624␊
210,2620␊
213,2661␊
210,2651␊
211,2674␊
211,2681␊
211,2700␊
211,2715␊
210,2711␊
213,2749␊
210,2743␊
211,2769␊
211,2773␊
212,2789␊
213,2807␊
210,2801␊
214,2835␊
211,2826␊
213,2849␊
211,2848␊
213,2856␊
214,2866␊
212,2851␊
216,2871␊
213,2853␊
215,2863␊
214,2855␊
216,2853␊
217,2865␊
215,2843␊
219,2861␊
216,2845␊
220,2859␊
219,2847␊
220,2844␊
221,2853␊
220,2831␊
224,2845␊
222,2828␊
227,2841␊
225,2825␊
225,2817␊
228,2831␊
226,2805␊
231,2817␊
229,2797␊
234,2807␊
233,2787␊
234,2771␊
240,2779␊
235,2740␊
242,2739␊
239,2707␊
246,2701␊
245,2672␊
246,2641␊
257,2647␊
250,2594␊
259,2590␊
257,2555␊
269,2549␊
270,2519␊
271,2489␊
294,2499␊
282,2444␊
302,2441␊
303,2403␊
334,2394␊
355,2365␊
354,2323␊
436,2325␊
415,2261␊
480,2246␊
491,2199␊
536,2175␊
578,2133␊
575,2073␊
668,2071␊
650,1991␊
715,1972␊
730,1916␊
774,1889␊
819,1849␊
815,1782␊
902,1787␊
886,1705␊
947,1687␊
960,1629␊
1001,1596␊
1046,1556␊
1050,1476␊
1130,1459␊
1119,1357␊
1211,1355␊
1192,1242␊
1269,1228␊
1263,1129␊
1325,1105␊
1330,1017␊
1389,993␊
1404,915␊
1458,891␊
1492,842␊
1503,769␊
1585,785␊
1575,683␊
1634,677␊
1650,614␊
1697,587␊
1728,548␊
1740,471␊
1818,491␊
1816,397␊
1876,391␊
1895,337␊
1938,322␊
1974,302␊
1983,277␊
2054,286␊
2050,262␊
2101,263␊
2116,253␊
2152,251␊
2182,245␊
2187,238␊
2246,241␊
2240,232␊
2282,232␊
2292,228␊
2317,227␊
2343,225␊
2342,220␊
2390,224␊
2381,217␊
2414,217␊
2419,213␊
2435,214␊
2459,212␊
2451,209␊
2492,211␊
2482,206␊
2512,208␊
2513,204␊
2526,204␊
2550,203␊
2544,200␊
2584,202␊
2576,199␊
2608,199␊
2611,196␊
2624,196␊
2647,194␊
2640,193␊
2674,195␊
2666,192␊
2693,193␊
2692,190␊
2701,189␊
2728,189␊
2718,187␊
2750,188␊
2742,185␊
2768,187␊
2763,185␊
2767,184␊
2791,184␊
2772,181␊
2792,183␊
2779,181␊
2796,182␊
2786,181␊
2780,180␊
2802,180␊
2781,178␊
2800,180␊
2787,178␊
2805,179␊
2798,178␊
2793,176␊
2818,177␊
2791,175␊
2807,177␊
2792,175␊
2802,176␊
2788,175␊
2773,175␊
2794,175␊
2758,174␊
2765,175␊
2747,175␊
2753,175␊
2740,174␊
2723,174␊
2744,175␊
2711,173␊
2718,175␊
2701,174␊
2707,174␊
2698,175␊
2679,174␊
2703,176␊
2668,173␊
2675,175␊
2656,174␊
2655,175␊
2643,174␊
2618,173␊
2635,176␊
2597,174␊
2599,175␊
2578,175␊
2575,176␊
2562,175␊
2531,175␊
2546,177␊
2503,176␊
2503,177␊
2476,176␊
2466,177␊
2453,178␊
2412,176␊
2425,179␊
2377,179␊
2374,179␊
2342,177␊
2325,179␊
2310,179␊
2263,178␊
2271,182␊
2219,180␊
2215,181␊
2178,181␊
2158,183␊
2146,183␊
2098,183␊
2099,186␊
2043,184␊
2037,186␊
1994,186␊
1969,189␊
1958,189␊
1903,188␊
1912,191␊
1861,189␊
1865,191␊
1827,191␊
1803,192␊
1801,194␊
1742,193␊
1751,197␊
1698,195␊
1701,197␊
1657,198␊
1625,198␊
1626,201␊
1561,200␊
1569,204␊
1515,204␊
1523,206␊
1476,207␊
1438,208␊
1446,210␊
1373,211␊
1380,217␊
1326,214␊
1336,220␊
1291,219␊
1253,222␊
1274,225␊
1199,225␊
1207,231␊
1154,232␊
1161,240␊
1120,239␊
1075,244␊
1100,254␊
1019,253␊
1026,267␊
975,270␊
975,291␊
943,297␊
880,299␊
887,344␊
829,351␊
801,391␊
804,468␊
722,457␊
729,541␊
686,571␊
635,599␊
656,699␊
582,696␊
584,776␊
555,815␊
493,822␊
511,913␊
457,927␊
437,979␊
447,1052␊
377,1049␊
385,1131␊
345,1155␊
345,1227␊
327,1267␊
301,1285␊
320,1383␊
287,1376␊
291,1447␊
279,1469␊
281,1533␊
274,1577␊
265,1598␊
274,1694␊
260,1695␊
262,1763␊
257,1787␊
259,1841␊
254,1878␊
248,1895␊
255,1977␊
244,1980␊
245,2045␊
242,2071␊
243,2123␊
240,2164␊
234,2178␊
240,2249␊
232,2251␊
234,2304␊
232,2319␊
232,2357␊
230,2389␊
227,2396␊
231,2453␊
225,2452␊
227,2493␊
225,2504␊
226,2531␊
224,2560␊
221,2560␊
225,2607␊
222,2605␊
222,2638␊
221,2647␊
221,2671␊
221,2697␊
219,2695␊
221,2731␊
218,2727␊
219,2752␊
218,2756␊
218,2771␊
218,2791␊
215,2781␊
219,2813␊
215,2804␊
217,2829␊
215,2829␊
216,2835␊
216,2853␊
214,2843␊
217,2869␊
215,2859␊
216,2881␊
215,2876␊
215,2880␊
216,2900␊
213,2886␊
217,2909␊
215,2899␊
218,2921␊
215,2913␊
215,2916␊
217,2933␊
215,2921␊
218,2940␊
215,2932␊
219,2949␊
217,2943␊
217,2939␊
219,2959␊
217,2937␊
220,2951␊
217,2933␊
221,2940␊
220,2925␊
219,2909␊
223,2921␊
220,2882␊
224,2885␊
222,2857␊
226,2855␊
223,2831␊
224,2805␊
229,2813␊
225,2770␊
229,2767␊
227,2740␊
231,2734␊
230,2709␊
230,2685␊
237,2697␊
232,2651␊
237,2649␊
236,2621␊
240,2615␊
240,2595␊
241,2564␊
251,2580␊
246,2533␊
252,2529␊
251,2502␊
259,2493␊
261,2473␊
259,2431␊
276,2439␊
268,2375␊
281,2360␊
281,2311␊
294,2287␊
301,2253␊
296,2198␊
338,2198␊
319,2131␊
356,2115␊
359,2065␊
381,2039␊
422,2012␊
402,1955␊
479,1962␊
454,1886␊
509,1867␊
514,1809␊
538,1774␊
591,1748␊
572,1679␊
652,1687␊
635,1613␊
696,1603␊
703,1551␊
727,1517␊
787,1503␊
772,1431␊
854,1441␊
848,1369␊
917,1363␊
931,1295␊
959,1244␊
1027,1223␊
1018,1133␊
1108,1135␊
1097,1032␊
1168,1024␊
1174,943␊
1235,932␊
1248,873␊
1295,847␊
1326,799␊
1326,719␊
1403,735␊
1386,640␊
1439,637␊
1447,581␊
1485,560␊
1512,535␊
1509,460␊
1579,484␊
1563,400␊
1611,398␊
1620,349␊
1647,329␊
1673,309␊
1661,280␊
1718,288␊
1699,265␊
1738,262␊
1737,253␊
1759,252␊
1782,246␊
1766,238␊
1816,242␊
1796,234␊
1832,234␊
1832,228␊
1849,226␊
1878,225␊
1867,220␊
1922,222␊
1914,216␊
1962,217␊
1978,214␊
2007,213␊
2052,211␊
2058,209␊
2120,210␊
2127,206␊
2183,205␊
2202,203␊
2235,203␊
2284,203␊
2290,200␊
2348,202␊
2356,198␊
2405,198␊
2417,196␊
2440,196␊
2481,195␊
2479,193␊
2524,194␊
2527,191␊
2563,193␊
2567,191␊
2577,190␊
2611,189␊
2600,187␊
2634,188␊
2631,186␊
2663,188␊
2667,187␊
2676,186␊
2713,187␊
2702,184␊
2734,186␊
2733,183␊
2759,186␊
2761,184␊
2763,183␊
2795,184␊
2776,183␊
2798,183␊
2789,181␊
2806,183␊
2803,180␊
2800,179␊
2828,182␊
2805,180␊
2822,182␊
2811,179␊
2819,181␊
2812,179␊
2797,180␊
2817,181␊
2786,178␊
2793,180␊
2774,179␊
2778,181␊
2768,179␊
2750,179␊
2771,181␊
2740,178␊
2747,180␊
2731,178␊
2733,180␊
2725,181␊
2705,178␊
2724,181␊
2690,179␊
2694,180␊
2675,178␊
2672,180␊
2661,180␊
2635,179␊
2651,182␊
2613,180␊
2614,181␊
2587,180␊
2576,181␊
2560,181␊
2525,180␊
2541,183␊
2499,181␊
2499,183␊
2475,182␊
2467,183␊
2460,184␊
2427,182␊
2441,185␊
2396,183␊
2393,185␊
2362,185␊
2345,187␊
2333,186␊
2290,186␊
2298,189␊
2246,186␊
2241,188␊
2203,188␊
2180,189␊
2174,189␊
2124,189␊
2136,193␊
2087,190␊
2091,193␊
2054,193␊
2028,194␊
2027,195␊
1974,195␊
1982,197␊
1933,196␊
1937,199␊
1894,199␊
1865,200␊
1872,203␊
1814,203␊
1824,208␊
1779,207␊
1786,212␊
1748,210␊
1718,214␊
1735,216␊
1667,215␊
1674,221␊
1617,221␊
1615,227␊
1569,226␊
1524,228␊
1544,235␊
1464,233␊
1467,240␊
1415,239␊
1411,249␊
1370,249␊
1320,253␊
1345,271␊
1255,265␊
1256,284␊
1200,286␊
1190,314␊
1152,325␊
1096,333␊
1124,425␊
1038,410␊
1042,494␊
991,518␊
983,591␊
960,637␊
895,641␊
901,723␊
851,741␊
820,785␊
838,869␊
755,851␊
763,929␊
723,954␊
670,971␊
695,1066␊
631,1065␊
640,1151␊
593,1168␊
548,1203␊
569,1285␊
483,1277␊
494,1355␊
437,1366␊
443,1441␊
403,1459␊
361,1487␊
389,1571␊
322,1561␊
327,1633␊
298,1647␊
302,1717␊
283,1739␊
273,1764␊
281,1847␊
261,1842␊
264,1910␊
254,1931␊
257,2001␊
249,2033␊
245,2066␊
250,2157␊
239,2159␊
241,2223␊
236,2249␊
239,2305␊
234,2331␊
231,2349␊
235,2415␊
228,2408␊
230,2452␊
225,2464␊
226,2505␊
224,2519␊
220,2526␊
225,2581␊
219,2569␊
221,2603␊
217,2609␊
219,2635␊
218,2649␊
215,2649␊
218,2693␊
213,2681␊
215,2705␊
212,2709␊
212,2731␊
212,2743␊
209,2737␊
213,2775␊
208,2761␊
210,2781␊
208,2781␊
209,2797␊
208,2805␊
206,2799␊
208,2833␊
206,2818␊
206,2837␊
204,2837␊
205,2847␊
205,2857␊
203,2843␊
206,2873␊
203,2854␊
204,2867␊
203,2861␊
204,2863␊
203,2868␊
202,2847␊
203,2862␊
202,2836␊
202,2839␊
202,2819␊
202,2809␊
203,2803␊
200,2773␊
203,2783␊
201,2751␊
201,2757␊
201,2735␊
202,2725␊
202,2724␊
200,2693␊
203,2701␊
201,2671␊
202,2679␊
201,2651␊
203,2636␊
203,2638␊
202,2601␊
204,2609␊
202,2577␊
204,2583␊
203,2557␊
203,2539␊
204,2545␊
203,2505␊
205,2514␊
203,2484␊
207,2491␊
206,2464␊
206,2445␊
208,2455␊
206,2411␊
209,2421␊
207,2389␊
211,2397␊
210,2373␊
210,2351␊
213,2369␊
211,2325␊
213,2335␊
211,2305␊
216,2308␊
214,2277␊
215,2241␊
219,2253␊
215,2187␊
219,2184␊
218,2141␊
222,2134␊
222,2099␊
222,2057␊
227,2071␊
223,2001␊
227,1997␊
225,1949␊
230,1939␊
230,1900␊
230,1851␊
238,1865␊
233,1792␊
238,1787␊
236,1737␊
242,1716␊
242,1679␊
242,1619␊
254,1633␊
249,1553␊
257,1545␊
258,1496␊
268,1478␊
274,1444␊
274,1380␊
303,1393␊
295,1308␊
324,1297␊
331,1238␊
361,1211␊
404,1181␊
398,1111␊
486,1128␊
474,1045␊
542,1043␊
558,991␊
592,965␊
657,959␊
638,879␊
704,880␊
717,829␊
731,781␊
819,808␊
795,718␊
856,723␊
875,681␊
872,615␊
941,623␊
941,551␊
978,518␊
1032,501␊
1014,405␊
1077,393␊
1083,331␊
1139,325␊
1159,296␊
1165,278␊
1253,290␊
1230,264␊
1292,265␊
1303,255␊
1358,256␊
1387,247␊
1397,241␊
1486,244␊
1473,234␊
1534,233␊
1552,228␊
1605,229␊
1638,225␊
1648,221␊
1729,224␊
1721,217␊
1776,218␊
1793,213␊
1838,213␊
1871,212␊
1875,211␊
1946,213␊
1936,208␊
1983,208␊
1995,206␊
2028,207␊
2057,205␊
2054,202␊
2111,205␊
2099,200␊
2137,201␊
2144,199␊
2170,200␊
2196,199␊
2191,196␊
2242,197␊
2237,195␊
2278,196␊
2292,195␊
2322,194␊
2359,194␊
2366,191␊
2421,194␊
2425,191␊
2467,192␊
2478,191␊
2502,190␊
2532,190␊
2527,189␊
2567,191␊
2560,188␊
2590,189␊
2593,187␊
2605,188␊
2631,186␊
2620,186␊
2653,188␊
2647,184␊
2675,186␊
2673,185␊
2682,184␊
2707,186␊
2693,184␊
2722,185␊
2714,183␊
2738,185␊
2734,185␊
2736,184␊
2758,184␊
2742,183␊
2764,185␊
2755,183␊
2773,185␊
2768,183␊
2766,184␊
2788,183␊
2768,181␊
2784,184␊
2774,182␊
2791,184␊
2784,183␊
2777,183␊
2800,184␊
2772,183␊
2786,184␊
2770,183␊
2780,185␊
2770,184␊
2755,185␊
2775,186␊
2743,183␊
2752,186␊
2736,184␊
2743,187␊
2732,185␊
2717,187␊
2738,188␊
2707,185␊
2717,188␊
2700,187␊
2706,188␊
2697,187␊
2678,187␊
2699,190␊
2665,187␊
2673,189␊
2655,189␊
2657,191␊
2649,190␊
2625,191␊
2646,195␊
2613,192␊
2619,194␊
2603,193␊
2601,197␊
2593,195␊
2566,196␊
2583,200␊
2545,197␊
2548,200␊
2525,200␊
2519,202␊
2510,202␊
2478,200␊
2495,206␊
2456,204␊
2460,207␊
2435,206␊
2425,209␊
2414,210␊
2375,208␊
2384,213␊
2334,212␊
2327,214␊
2290,215␊
2267,218␊
2249,219␊
2199,219␊
2206,226␊
2151,223␊
2144,227␊
2103,229␊
2077,233␊
2064,235␊
2009,235␊
2016,246␊
1963,245␊
1963,254␊
1926,257␊
1902,265␊
1899,276␊
1847,274␊
1859,303␊
1809,297␊
1818,337␊
1778,347␊
1752,373␊
1754,452␊
1698,443␊
1711,535␊
1660,536␊
1667,613␊
1618,627␊
1582,652␊
1582,737␊
1511,730␊
1516,826␊
1459,841␊
1460,929␊
1411,956␊
1366,989␊
1376,1081␊
1295,1073␊
1298,1167␊
1217,1167␊
1211,1251␊
1148,1276␊
1139,1354␊
1089,1385␊
1095,1468␊
1042,1483␊
1027,1543␊
994,1575␊
954,1610␊
959,1669␊
890,1671␊
916,1751␊
851,1749␊
859,1810␊
811,1819␊
776,1845␊
790,1893␊
717,1886␊
739,1949␊
676,1949␊
685,2009␊
634,2020␊
589,2046␊
610,2107␊
530,2108␊
548,2171␊
489,2178␊
494,2231␊
453,2242␊
406,2263␊
431,2317␊
355,2313␊
368,2369␊
327,2380␊
331,2434␊
307,2450␊
292,2473␊
307,2528␊
279,2521␊
285,2567␊
271,2573␊
276,2610␊
265,2621␊
258,2627␊
265,2675␊
251,2661␊
254,2693␊
247,2691␊
249,2715␊
244,2716␊
240,2713␊
247,2748␊
237,2726␊
239,2749␊
235,2743␊
236,2757␊
234,2756␊
230,2747␊
235,2777␊
229,2753␊
230,2770␊
227,2763␊
229,2775␊
226,2773␊
223,2761␊
228,2789␊
221,2765␊
223,2779␊
221,2767␊
223,2773␊
221,2767␊
219,2749␊
223,2771␊
218,2742␊
219,2749␊
217,2733␊
218,2734␊
218,2727␊
215,2705␊
219,2725␊
215,2691␊
217,2697␊
215,2681␊
215,2679␊
215,2674␊
213,2647␊
216,2660␊
213,2621␊
214,2623␊
212,2597␊
215,2583␊
214,2572␊
213,2535␊
216,2546␊
212,2500␊
213,2495␊
213,2457␊
214,2431␊
214,2413␊
212,2362␊
216,2359␊
213,2302␊
215,2295␊
213,2250␊
215,2220␊
215,2209␊
214,2151␊
218,2153␊
215,2096␊
217,2092␊
216,2037␊
217,1998␊
218,1987␊
215,1915␊
219,1911␊
217,1847␊
221,1845␊
218,1783␊
219,1735␊
222,1724␊
219,1642␊
222,1636␊
221,1570␊
225,1569␊
223,1513␊
225,1469␊
228,1480␊
225,1394␊
230,1391␊
227,1327␊
233,1321␊
231,1263␊
232,1207␊
236,1219␊
232,1123␊
239,1117␊
236,1053␊
242,1047␊
241,995␊
241,934␊
249,952␊
244,865␊
251,859␊
250,811␊
250,742␊
259,749␊
256,682␊
262,648␊
268,643␊
264,553␊
273,546␊
273,494␊
276,436␊
299,450␊
287,360␊
310,353␊
312,314␊
310,284␊
350,285␊
350,266␊
380,264␊
442,258␊
418,246␊
479,246␊
495,239␊
504,235␊
587,239␊
571,229␊
635,231␊
659,227␊
651,220␊
723,224␊
725,219␊
761,219␊
819,219␊
802,213␊
867,215␊
879,213␊
890,212␊
967,214␊
949,209␊
1010,211␊
1027,207␊
1030,206␊
1123,209␊
1102,204␊
1163,206␊
1177,203␊
1222,204␊
1257,202␊
1258,199␊
1340,201␊
1323,199␊
1379,198␊
1395,197␊
1437,197␊
1477,195␊
1479,194␊
1557,196␊
1547,192␊
1599,193␊
1611,192␊
1644,192␊
1681,191␊
1678,189␊
1745,191␊
1737,188␊
1787,189␊
1799,187␊
1830,188␊
1870,186␊
1868,186␊
1931,188␊
1926,185␊
1975,186␊
1988,185␊
2020,185␊
2069,185␊
2070,184␊
2133,186␊
2136,183␊
2187,184␊
2200,183␊
2225,183␊
2269,183␊
2267,182␊
2318,184␊
2317,181␊
2361,182␊
2368,181␊
2387,181␊
2428,182␊
2423,181␊
2466,183␊
2464,180␊
2504,182␊
2504,181␊
2514,182␊
2552,182␊
2544,181␊
2581,182␊
2583,181␊
2622,183␊
2628,183␊
2640,182␊
2679,183␊
2670,181␊
2702,184␊
2700,182␊
2730,185␊
2732,183␊
2737,183␊
2774,185␊
2759,185␊
2788,186␊
2787,186␊
2811,188␊
2814,187␊
2816,188␊
2852,191␊
2830,188␊
2850,191␊
2843,190␊
2859,193␊
2858,192␊
2851,193␊
2875,197␊
2852,194␊
2866,197␊
2855,196␊
2866,199␊
2860,199␊
2848,199␊
2868,204␊
2843,200␊
2853,205␊
2842,203␊
2847,207␊
2843,207␊
2826,207␊
2846,212␊
2822,209␊
2831,213␊
2818,213␊
2822,216␊
2816,216␊
2796,218␊
2814,225␊
2784,221␊
2790,226␊
2773,225␊
2770,230␊
2762,230␊
2736,229␊
2749,239␊
2715,236␊
2717,241␊
2694,242␊
2683,248␊
2672,250␊
2638,249␊
2647,264␊
2610,257␊
2609,268␊
2584,268␊
2574,279␊
2566,284␊
2531,281␊
2541,308␊
2501,296␊
2502,320␊
2475,318␊
2458,331␊
2451,357␊
2411,334␊
2419,386␊
2376,360␊
2376,406␊
2344,401␊
2324,404␊
2318,447␊
2272,411␊
2280,476␊
2236,461␊
2239,529␊
2203,538␊
2180,563␊
2178,636␊
2129,623␊
2135,708␊
2089,709␊
2093,791␊
2051,805␊
2021,835␊
2022,914␊
1965,903␊
1971,985␊
1926,988␊
1934,1068␊
1898,1087␊
1875,1131␊
1858,1187␊
1815,1209␊
1822,1293␊
1760,1299␊
1786,1409␊
1714,1399␊
1728,1491␊
1668,1495␊
1675,1576␊
1626,1590␊
1625,1659␊
1582,1685␊
1586,1757␊
1533,1777␊
1522,1831␊
1487,1861␊
1455,1896␊
1439,1943␊
1387,1963␊
1397,2035␊
1324,2045␊
1351,2135␊
1267,2132␊
1282,2202␊
1211,2205␊
1212,2261␊
1152,2273␊
1148,2322␊
1095,2349␊
1099,2410␊
1041,2425␊
1024,2470␊
984,2493␊
941,2521␊
939,2557␊
862,2565␊
875,2614␊
808,2621␊
812,2666␊
762,2679␊
721,2703␊
730,2740␊
649,2742␊
664,2781␊
599,2785␊
610,2815␊
560,2819␊
516,2829␊
536,2852␊
457,2843␊
472,2869␊
418,2861␊
428,2885␊
389,2877␊
353,2878␊
376,2895␊
320,2881␊
334,2899␊
306,2887␊
315,2901␊
297,2891␊
286,2883␊
298,2899␊
274,2872␊
281,2883␊
268,2863␊
275,2871␊
265,2855␊
260,2839␊
268,2852␊
253,2817␊
258,2823␊
251,2801␊
254,2804␊
247,2785␊
244,2761␊
250,2775␊
240,2737␊
243,2740␊
239,2717␊
240,2716␊
237,2695␊
234,2667␊
238,2679␊
231,2635␊
234,2634␊
230,2605␊
232,2599␊
230,2576␊
228,2539␊
232,2549␊
227,2501␊
229,2493␊
227,2459␊
228,2447␊
227,2421␊
224,2380␊
229,2389␊
224,2338␊
226,2336␊
223,2300␊
226,2293␊
224,2275␊
221,2235␊
226,2252␊
222,2205␊
223,2207␊
222,2172␊
223,2157␊
224,2139␊
220,2089␊
225,2101␊
221,2037␊
223,2027␊
222,1979␊
223,1948␊
224,1919␊
221,1853␊
225,1855␊
222,1783␊
224,1771␊
223,1713␊
224,1677␊
225,1647␊
223,1574␊
227,1576␊
223,1501␊
226,1495␊
225,1435␊
228,1399␊
228,1384␊
226,1311␊
232,1319␊
229,1251␊
232,1253␊
230,1187␊
232,1140␊
233,1124␊
231,1037␊
237,1036␊
234,959␊
240,963␊
238,907␊
236,847␊
243,863␊
240,799␊
243,789␊
245,779␊
242,703␊
247,709␊
246,655␊
249,610␊
256,623␊
249,526␊
257,527␊
256,475␊
254,404␊
265,413␊
260,344␊
269,332␊
272,313␊
268,284␊
282,282␊
281,268␊
286,262␊
310,265␊
293,248␊
322,251␊
322,244␊
320,237␊
372,240␊
365,231␊
403,234␊
445,229␊
426,224␊
486,227␊
492,222␊
506,219␊
586,224␊
554,216␊
619,216␊
625,214␊
619,211␊
693,213␊
681,209␊
724,210␊
765,208␊
748,205␊
805,206␊
808,203␊
824,203␊
897,204␊
863,199␊
925,200␊
935,199␊
935,196␊
1009,200␊
1002,196␊
1068,197␊
1086,195␊
1101,194␊
1184,195␊
1163,191␊
1225,193␊
1230,192␊
1285,193␊
1303,191␊
1314,189␊
1400,191␊
1384,188␊
1448,189␊
1461,187␊
1514,188␊
1541,187␊
1551,187␊
1631,189␊
1616,185␊
1673,186␊
1684,184␊
1733,185␊
1759,184␊
1763,183␊
1835,185␊
1820,182␊
1870,184␊
1877,182␊
1916,183␊
1935,183␊
1935,182␊
1995,184␊
1980,180␊
2021,183␊
2026,181␊
2058,183␊
2080,182␊
2078,181␊
2135,183␊
2124,180␊
2165,181␊
2173,180␊
2206,183␊
2236,182␊
2239,180␊
2298,183␊
2294,180␊
2335,181␊
2347,180␊
2374,181␊
2402,182␊
2403,180␊
2450,183␊
2446,181␊
2483,182␊
2491,182␊
2518,184␊
2547,184␊
2548,182␊
2591,184␊
2589,182␊
2622,183␊
2627,184␊
2645,184␊
2669,185␊
2666,184␊
2700,186␊
2695,185␊
2724,186␊
2722,187␊
2733,187␊
2752,187␊
2740,186␊
2768,189␊
2756,187␊
2779,189␊
2771,190␊
2772,190␊
2789,191␊
2772,191␊
2793,194␊
2779,193␊
2799,197␊
2788,194␊
2787,195␊
2803,197␊
2785,195␊
2803,199␊
2790,197␊
2808,202␊
2798,201␊
2793,202␊
2810,204␊
2785,201␊
2798,206␊
2783,204␊
2796,209␊
2782,208␊
2770,209␊
2785,212␊
2755,212␊
2764,215␊
2746,214␊
2753,219␊
2737,219␊
2722,220␊
2739,227␊
2704,224␊
2713,231␊
2691,230␊
2699,237␊
2686,237␊
2668,239␊
2688,252␊
2655,247␊
2663,258␊
2644,258␊
2651,275␊
2637,281␊
2618,288␊
2640,339␊
2605,329␊
2611,389␊
2594,411␊
2595,470␊
2582,513␊
2556,519␊
2574,623␊
2536,604␊
2539,676␊
2515,692␊
2512,746␊
2496,787␊
2465,789␊
2478,885␊
2431,866␊
2429,935␊
2400,951␊
2391,1002␊
2374,1047␊
2338,1062␊
2345,1153␊
2293,1151␊
2306,1257␊
2244,1247␊
2247,1337␊
2195,1346␊
2191,1428␊
2149,1449␊
2141,1526␊
2106,1562␊
2106,1649␊
2065,1677␊
2054,1744␊
2025,1789␊
1991,1835␊
1976,1901␊
1925,1932␊
1931,2023␊
1869,2043␊
1889,2139␊
1823,2145␊
1833,2221␊
1780,2233␊
1783,2293␊
1739,2307␊
1739,2356␊
1696,2373␊
1694,2423␊
